…
Here we see we have an outlier in our data.

``` r
min(reduced$total_other)
```

    ## [1] -1.313282e+36

Let’s remove negative values which appear to be incorrect values.

``` r
(reduced <- reduced %>% mutate(total_other = ifelse(total_other < 0, 0, total_other)))
```

    ## # A tibble: 1,300,373 × 11
    ## # Groups:   timestamp [1,300,313]
    ##       id timestamp demand frequ…¹  coal nuclear  ccgt  wind pumped hydro total…²
    ##    <int> <chr>      <int>   <dbl> <int>   <int> <int> <int>  <int> <int>   <dbl>
    ##  1     4 " 2011-0…  38874    50.1  9316    8221 18239  1253    309   636     498
    ##  2     5 " 2011-0…  38845    50.1  9294    8225 18158  1304    332   633     498
    ##  3     6 " 2011-0…  38745    50.0  9270    8224 18110  1322    285   634     498
    ##  4     7 " 2011-0…  38826    50.0  9262    8220 18114  1364    287   635     486
    ##  5     8 " 2011-0…  38865    50.0  9256    8210 18107  1370    297   637     486
    ##  6     9 " 2011-0…  38881    50.1  9284    8198 18074  1397    293   637     486
    ##  7    10 " 2011-0…  38876    50.0  9243    8203 18060  1451    285   635     486
    ##  8    11 " 2011-0…  38911    50.1  9250    8202 18048  1490    287   635     486
    ##  9    12 " 2011-0…  38829    50.1  9187    8199 17990  1529    289   636     486
    ## 10    13 " 2011-0…  38735    50.0  9068    8206 17978  1561    290   634     582
    ## # … with 1,300,363 more rows, and abbreviated variable names ¹​frequency,
    ## #   ²​total_other
…
``` r
UK_power[, sapply(UK_power, is.numeric)] <- UK_power[, sapply(UK_power, is.numeric)] / 1000
```

Finally, let’s save this processed dataset to a csv and create a tsibble
to work with.

``` r
write.csv(UK_power, "./data/UK_power_processed.csv")

UK_power_ts <- as_tsibble(UK_power, index=date)
UK_power_ts
```

    ## # A tsibble: 4,524 x 9 [1D]
    ##    date       demand  coal nuclear  ccgt  wind pumped hydro total_other
    ##    <date>      <dbl> <dbl>   <dbl> <dbl> <dbl>  <dbl> <dbl>       <dbl>
    ##  1 2011-05-27   34.1  7.22    8.29  15.1 1.84   0.230 0.544       0.521
    ##  2 2011-05-28   30.3  6.39    8.47  11.3 2.14   0.277 0.503       0.898
    ##  3 2011-05-29   29.1  4.74    8.75  11.4 2.03   0.242 0.512       1.09 
    ##  4 2011-05-30   31.4  6.86    8.82  13.9 0.533  0.357 0.584       0.203
    ##  5 2011-05-31   34.4  8.85    8.30  15.3 0.700  0.329 0.484       0.237
    ##  6 2011-06-01   34.7  8.93    8.22  14.6 1.59   0.284 0.474       0.414
    ##  7 2011-06-02   34.9  8.71    8.27  14.6 0.693  0.394 0.467       1.33 
    ##  8 2011-06-03   33.9  8.20    8.56  14.6 0.718  0.400 0.430       0.593
    ##  9 2011-06-04   30.3  5.67    8.81  12.5 1.06   0.251 0.363       1.35 
    ## 10 2011-06-05   29.9  5.86    8.81  11.8 1.05   0.292 0.384       1.32 
    ## # … with 4,514 more rows
…
start_date = max(UK_power_monthly_ts$date)+1
end_date = yearmonth(ymd("2030-12-01"))
prediction_dates = seq(start_date, end_date, by=1)

final_forecasts <- final_model_fits %>%
  forecast(h=length(prediction_dates))

final_forecasts
```

    ## # A fable: 172 x 4 [1M]
    ## # Key:     .model [2]
    ##    .model     date        wind .mean
    ##    <chr>     <mth>      <dist> <dbl>
    ##  1 ets    2023 Nov N(8.9, 3.4)  8.92
    ##  2 ets    2023 Dec  N(10, 4.5) 10.1 
    ##  3 ets    2024 Jan  N(10, 4.5)  9.98
    ##  4 ets    2024 Feb  N(11, 5.2) 10.6 
    ##  5 ets    2024 Mar N(8.3, 3.3)  8.26
    ##  6 ets    2024 Apr N(6.5, 2.1)  6.54
    ##  7 ets    2024 May N(6.4, 2.1)  6.41
    ##  8 ets    2024 Jun N(5.2, 1.4)  5.23
    ##  9 ets    2024 Jul N(4.8, 1.2)  4.76
    ## 10 ets    2024 Aug N(5.5, 1.6)  5.50
    ## # … with 162 more rows
…
